{
     "appName": "mlm",
     "Configuration": {
          "Buttons": [
               "kmkl",
               "123",
               "456",
               "789"
          ],
          "Positions": [
               "305.0,215.0",
               "339.0,136.0",
               "50,50",
               "50,50"
          ],
          "Interpreters": [
               "python3",
               "python3",
               "python3",
               "python3"
          ],
          "Modules": [
               "Subprocess.py",
               "Subprocess.py",
               "Subprocess.py",
               "Subprocess.py"
          ],
          "Commands": [
               "echo hello",
               "echo hello",
               "echo hello",
               "echo hello"
          ],
          "Directories": [
               "/home/umang"
          ]
     }
}