{
     "appName": "hhh",
     "Configuration": {
          "Buttons": [],
          "Positions": [],
          "Interpreters": [],
          "Modules": [],
          "Commands": [],
          "Directories": [
               "/home/umang"
          ]
     }
}